{
  "type": "service_account",
  "project_id": "my_project_id",
  "private_key_id": "my_private_key_id",
  "private_key": "my_private_key",
  "client_email": "my_client_email",
  "client_id": "my_client_id",
  "auth_uri": "https://accounts.google.com/o/oauth2/auth",
  "token_uri": "https://oauth2.googleapis.com/token",
  "auth_provider_x509_cert_url": "https://www.googleapis.com/oauth2/v1/certs",
  "client_x509_cert_url": "my_client_x509_cert_url"
}
